[gd_scene load_steps=2 format=2]

[ext_resource path="res://scripts/Detection_Zone.gd" type="Script" id=1]

[node name="Detection_Zone" type="Area2D"]
script = ExtResource( 1 )
[connection signal="body_entered" from="." to="." method="_on_Detection_Zone_body_entered"]
[connection signal="body_exited" from="." to="." method="_on_Detection_Zone_body_exited"]
