; Engine configuration file.
; It's best edited using the editor UI and not directly,
; since the parameters that go here are not all obvious.
;
; Format:
;   [section] ; section goes between []
;   param=value ; assign values to parameters

config_version=4

_global_script_classes=[ {
"base": "Reference",
"class": "Actor",
"language": "GDScript",
"path": "res://scripts/Actor/Actor.gd"
}, {
"base": "Node2D",
"class": "Brain",
"language": "GDScript",
"path": "res://scripts/State Machine/Brain.gd"
}, {
"base": "KinematicBody2D",
"class": "Character_Controller",
"language": "GDScript",
"path": "res://scripts/Controllers/Character_Controller.gd"
}, {
"base": "State",
"class": "EnemyAttackState",
"language": "GDScript",
"path": "res://EnemyAttackState.gd"
}, {
"base": "Character_Controller",
"class": "Enemy_Controller",
"language": "GDScript",
"path": "res://scripts/Controllers/Enemy_Controller.gd"
}, {
"base": "Reference",
"class": "Event",
"language": "GDScript",
"path": "res://scripts/Events/Event.gd"
}, {
"base": "Reference",
"class": "EventListener",
"language": "GDScript",
"path": "res://scripts/Events/EventListener.gd"
}, {
"base": "State",
"class": "FlyDieState",
"language": "GDScript",
"path": "res://scripts/State Machine/FlyAndDieState.gd"
}, {
"base": "State",
"class": "HoldState",
"language": "GDScript",
"path": "res://scripts/State Machine/HoldState.gd"
}, {
"base": "State",
"class": "IdleState",
"language": "GDScript",
"path": "res://scripts/State Machine/IdleState.gd"
}, {
"base": "Reference",
"class": "ItemRef",
"language": "GDScript",
"path": "res://scripts/Actor/ItemRef.gd"
}, {
"base": "State",
"class": "MoveState",
"language": "GDScript",
"path": "res://scripts/State Machine/MoveState.gd"
}, {
"base": "Character_Controller",
"class": "Player_Controller",
"language": "GDScript",
"path": "res://scripts/Controllers/Player_Controller.gd"
}, {
"base": "StaticBody2D",
"class": "ShipSystem",
"language": "GDScript",
"path": "res://scripts/Controllers/ShipSystem.gd"
}, {
"base": "State",
"class": "ShootState",
"language": "GDScript",
"path": "res://scripts/State Machine/ShootState.gd"
}, {
"base": "Reference",
"class": "State",
"language": "GDScript",
"path": "res://scripts/State Machine/State.gd"
}, {
"base": "State",
"class": "UsePowerState",
"language": "GDScript",
"path": "res://scripts/State Machine/PowerState.gd"
} ]
_global_script_class_icons={
"Actor": "",
"Brain": "",
"Character_Controller": "",
"EnemyAttackState": "",
"Enemy_Controller": "",
"Event": "",
"EventListener": "",
"FlyDieState": "",
"HoldState": "",
"IdleState": "",
"ItemRef": "",
"MoveState": "",
"Player_Controller": "",
"ShipSystem": "",
"ShootState": "",
"State": "",
"UsePowerState": ""
}

[application]

config/name="Miziziz-GameJam"
run/main_scene="res://scenes/MAIN_LEVEL.tscn"
config/icon="res://icon.png"

[autoload]

EventMgr="*res://scripts/Events/EventMgr.gd"
Globals="*res://scripts/Globals.gd"
Sound_Mgr="*res://scenes/Sound_Mgr.tscn"

[display]

window/size/width=640
window/size/height=270
window/stretch/mode="2d"
window/stretch/aspect="keep_width"

[importer_defaults]

texture={
"compress/bptc_ldr": 0,
"compress/hdr_mode": 0,
"compress/lossy_quality": 0.7,
"compress/mode": 0,
"compress/normal_map": 0,
"detect_3d": false,
"flags/anisotropic": false,
"flags/filter": false,
"flags/mipmaps": false,
"flags/repeat": 0,
"flags/srgb": 2,
"process/HDR_as_SRGB": false,
"process/fix_alpha_border": true,
"process/invert_color": false,
"process/premult_alpha": false,
"size_limit": 0,
"stream": false,
"svg/scale": 1.0
}

[input]

Up={
"deadzone": 0.5,
"events": [ Object(InputEventKey,"resource_local_to_scene":false,"resource_name":"","device":0,"alt":false,"shift":false,"control":false,"meta":false,"command":false,"pressed":false,"scancode":87,"unicode":0,"echo":false,"script":null)
 ]
}
Down={
"deadzone": 0.5,
"events": [ Object(InputEventKey,"resource_local_to_scene":false,"resource_name":"","device":0,"alt":false,"shift":false,"control":false,"meta":false,"command":false,"pressed":false,"scancode":83,"unicode":0,"echo":false,"script":null)
 ]
}
Left={
"deadzone": 0.5,
"events": [ Object(InputEventKey,"resource_local_to_scene":false,"resource_name":"","device":0,"alt":false,"shift":false,"control":false,"meta":false,"command":false,"pressed":false,"scancode":65,"unicode":0,"echo":false,"script":null)
 ]
}
Right={
"deadzone": 0.5,
"events": [ Object(InputEventKey,"resource_local_to_scene":false,"resource_name":"","device":0,"alt":false,"shift":false,"control":false,"meta":false,"command":false,"pressed":false,"scancode":68,"unicode":0,"echo":false,"script":null)
 ]
}
M0={
"deadzone": 0.5,
"events": [ Object(InputEventMouseButton,"resource_local_to_scene":false,"resource_name":"","device":0,"alt":false,"shift":false,"control":false,"meta":false,"command":false,"button_mask":0,"position":Vector2( 0, 0 ),"global_position":Vector2( 0, 0 ),"factor":1.0,"button_index":1,"pressed":false,"doubleclick":false,"script":null)
 ]
}
M1={
"deadzone": 0.5,
"events": [ Object(InputEventMouseButton,"resource_local_to_scene":false,"resource_name":"","device":0,"alt":false,"shift":false,"control":false,"meta":false,"command":false,"button_mask":0,"position":Vector2( 0, 0 ),"global_position":Vector2( 0, 0 ),"factor":1.0,"button_index":2,"pressed":false,"doubleclick":false,"script":null)
 ]
}
Interact={
"deadzone": 0.5,
"events": [ Object(InputEventKey,"resource_local_to_scene":false,"resource_name":"","device":0,"alt":false,"shift":false,"control":false,"meta":false,"command":false,"pressed":false,"scancode":69,"unicode":0,"echo":false,"script":null)
 ]
}
Drop={
"deadzone": 0.5,
"events": [ Object(InputEventKey,"resource_local_to_scene":false,"resource_name":"","device":0,"alt":false,"shift":false,"control":false,"meta":false,"command":false,"pressed":false,"scancode":82,"unicode":0,"echo":false,"script":null)
 ]
}

[layer_names]

2d_physics/layer_1="World"
2d_physics/layer_2="Player"
2d_physics/layer_3="PlayerHurtbox"
2d_physics/layer_4="PlayerWeapon"
2d_physics/layer_5="Item"
2d_physics/layer_10="Enemy"
2d_physics/layer_11="EnemyHurtbox"
2d_physics/layer_12="EnemyWeapon"

[rendering]

quality/2d/use_pixel_snap=true
environment/default_clear_color=Color( 0.027451, 0.0588235, 0.113725, 1 )
environment/default_environment="res://default_env.tres"
